-------------------------------------------------------------------------------
Test set: com.google.protobuf.DynamicMessageTest
-------------------------------------------------------------------------------
Tests run: 16, Failures: 0, Errors: 0, Skipped: 0, Time elapsed: 0.061 sec
