-------------------------------------------------------------------------------
Test set: com.google.protobuf.UnknownFieldSetTest
-------------------------------------------------------------------------------
Tests run: 17, Failures: 0, Errors: 0, Skipped: 0, Time elapsed: 0.079 sec
